{
    "agsiModel": [
        {
            "modelID": "1fb599ab-c040-408d-aba0-85b18bb506c2",
            "name": "Geological Model: sitewide",
            "description": "Sitewide geological model incorporating 2019 GI data ",
            "type": "Geological model",
            "category": "Observational",
            "domain": "Engineering geology",
            "inputDesc": "Input data as described in GIR",
            "modelMethodDesc": "3D model created in Leapfrog. See GIR for details.",
            "usageDesc": "Observational and interpolated geological profile. For reference and visualisation only. Not suitable for direct use in design. See GIR for details.",
            "documentID": [
                "GIR_P2",
                "GDR_P1"
            ],
            "remarks": "Some additional remarks",
            "agsiModelSubset": [
                {
                    "subsetID": "GEOLEXPHOLES",
                    "description": "Exporaratory holes"
                }
            ],
            "agsiModelElement": [
                {
                    "elementID": "ExpHole-A",
                    "description": "Exp Holes - Package A",
                    "type": "Exploratory Hole",
                    "subsetID": "GEOLEXPHOLES",
                    "geometryForm": "Exploratory Hole Set",
                    "geometryID": "Holes-GI-A"
                },
                {
                    "elementID": "GeolCol-A-MG",
                    "description": "Exp Hole Geology - Made Ground",
                    "type": "Exploratory Hole Geology",
                    "subsetID": "GEOLEXPHOLES",
                    "geometryForm": "Exploratory Hole Column Set",
                    "geometryID": "GEOLCOL-GI-A-MG"
                },
                {
                    "elementID": "GeolCol-A-ALV",
                    "description": "Exp Hole Geology - Alluvium",
                    "type": "Exploratory Hole Geology",
                    "subsetID": "GEOLEXPHOLES",
                    "geometryForm": "Exploratory Hole Column Set",
                    "geometryID": "GEOLCOL-GI-A-ALV"
                },
                {
                    "elementID": "GeolCol-A-GCC",
                    "description": "Exp Hole Geology - Gotham City Clay",
                    "type": "Exploratory Hole Geology",
                    "subsetID": "GEOLEXPHOLES",
                    "geometryForm": "Exploratory Hole Column Set",
                    "geometryID": "GEOLCOL-GI-A-GCC"
                }
            ]
        }
    ],
    "agsiGeometry": {
        "geometrySetID": "f402948e-d5f4-4b1c-923b-2ce8578bb5c3",
        "description": "Geometry data for boreholes",
        "agsiGeometryExpHoleSet": [
            {
                "geometryID": "Holes-GI-A",
                "description": "2019 GI Package A",
                "agsiGeometryExpHole": [
                    {
                        "expHoleID": "A/BH01",
                        "name": "BH01",
                        "topCoordinates": [
                            525275.5,
                            181543.2,
                            15.25
                        ],
                        "verticalHoleDepth": 25,
                        "type": "CP",
                        "investigation": "2019 GI Package A",
                        "date": "2019-05-23",
                        "propertySetID": "PROP-A-BH01-SPT"
                    },
                    {
                        "expHoleID": "A/BH02",
                        "name": "BH02",
                        "topCoordinates": [
                            525220.0,
                            181550.0,
                            17.2
                        ],
                        "verticalHoleDepth": 50,
                        "type": "CP+RC",
                        "investigation": "2020 GI Package A",
                        "date": "2019-05-27"
                    }
                ]
            }
        ],
        "agsiGeometryColumnSet": [
            {
                "geometryID": "GEOLCOL-GI-A-MG",
                "description": "Made Ground (2019 GI Package A)",
                "columnType": "Geology",
                "agsiGeometryColumn": [
                    {
                        "topCoordinates": [
                            525275.5,
                            181543.2,
                            15.25
                        ],
                        "vertBottomElevation": 13.5,
                        "expHoleName": "BH01",
                        "expHoleID": "A/BH01",
                        "description": "Very soft and soft brown, dark brown and grey slightly sandy slightly gravelly CLAY",
                        "legendCode": "102",
                        "geologyCode": "MG"
                    },
                    {
                        "topCoordinates": [
                            525220.0,
                            181550.0,
                            17.2
                        ],
                        "vertBottomElevation": 14.1,
                        "expHoleName": "BH02",
                        "expHoleID": "A/BH02",
                        "description": "Brown slightly clayey SAND with some subangular to subrounded fine to coarse fravel of flint, concrete and brick. Occasional subangular cobbles of concrete. ",
                        "legendCode": "102",
                        "geologyCode": "MG"
                    },
                    {
                        "topCoordinates": [
                            525275.5,
                            181543.2,
                            13.5
                        ],
                        "vertBottomElevation": 8.9,
                        "expHoleName": "BH01",
                        "expHoleID": "A/BH01",
                        "description": "Soft brown silty sandy  CLAY",
                        "legendCode": 207,
                        "geologyCode": "ALV"
                    },
                    {
                        "topCoordinates": [
                            525220.0,
                            181550.0,
                            14.1
                        ],
                        "vertBottomElevation": 9.4,
                        "expHoleName": "BH02",
                        "expHoleID": "A/BH02",
                        "description": "Vert soft/loose brown sandy SILT",
                        "legendCode": "303",
                        "geologyCode": "ALV"
                    },
                    {
                        "topCoordinates": [
                            525275.5,
                            181543.2,
                            8.9
                        ],
                        "vertBottomElevation": 13.5,
                        "expHoleName": "BH01",
                        "expHoleID": "A/BH01",
                        "description": "Stiff to very stiff blue grey slightly sandy silty CLAY with rare claystone layers (<0.1m thick)",
                        "legendCode": "202",
                        "geologyCode": "GCC"
                    },
                    {
                        "topCoordinates": [
                            525220.0,
                            181550.0,
                            9.4
                        ],
                        "vertBottomElevation": 14.1,
                        "expHoleName": "BH02",
                        "expHoleID": "A/BH02",
                        "description": "Stiff to very stiff blue grey silty CLAY",
                        "legendCode": "202",
                        "geologyCode": "GCC"
                    }
                ]
            }
        ]
    },
    "agsiData": {
        "dataSetID": "40b785d0-547c-41c5-9b36-3cd31126ecb0",
        "description": "Example Project interpreted data",
        "codeDictionary": "https://gitlab.com/AGS-DFWG-Web/ASGi/agsCodeList.htm",
        "agsiDataCode": [
            {
                "codeID": "SPTN",
                "description": "SPT N value",
                "units": "Blows/300mm"
            }
        ],
        "agsiDataPropertySet": [
            {
                "propertySetID": "PROP-A-BH01-SPT",
                "description": "SPT N for A/BH01",
                "remarks": "Only the top few data points shown for this example",
                "agsiDataPropertyValue": [
                    {
                        "codeID": "SPTN",
                        "valueProfileIndVarCodeID": "ELEV",
                        "valueProfileCoordinates": [
                            [
                                14.0,
                                21.0
                            ],
                            [
                                13.0,
                                8.0
                            ],
                            [
                                12.0,
                                7.0
                            ],
                            [
                                11.0,
                                27.0
                            ],
                            [
                                10.0,
                                38.0
                            ],
                            [
                                8.5,
                                22.0
                            ]
                        ]
                    }
                ]
            }
        ]
    }
}