﻿agsiModel,,[agsiModel](./Standard_Model_agsiModel.md),agsiModel
agsiModelElement,,[agsiModelElement](./Standard_Model_agsiModelElement.md),agsiModelElement
agsiModelBoundary,,[agsiModelBoundary](./Standard_Model_agsiModelBoundary.md),agsiModelBoundary
agsiModelSubset,,[agsiModelSubset](./Standard_Model_agsiModelSubset.md),agsiModelSubset
agsiGeometry,,[agsiGeometry](./Standard_Geometry_agsiGeometry.md),agsiGeometry
# [agsiGeometryFromFile](./Standard_Geometry_agsiGeometryFromFile.md),# agsiGeometryFromFile,[agsiGeometryFromFile](./Standard_Geometry_agsiGeometryFromFile.md),agsiGeometryFromFile
# [agsiGeometryLayer](./Standard_Geometry_agsiGeometryLayer.md),# agsiGeometryLayer,[agsiGeometryLayer](./Standard_Geometry_agsiGeometryLayer.md),agsiGeometryLayer
# [agsiGeometryExpHoleSet](./Standard_Geometry_agsiGeometryExpHoleSet.md),# agsiGeometryExpHoleSet,[agsiGeometryExpHoleSet](./Standard_Geometry_agsiGeometryExpHoleSet.md),agsiGeometryExpHoleSet
# [agsiGeometryExpHole](./Standard_Geometry_agsiGeometryExpHole.md),# agsiGeometryExpHole,[agsiGeometryExpHole](./Standard_Geometry_agsiGeometryExpHole.md),agsiGeometryExpHole
# [agsiGeometryColumnSet](./Standard_Geometry_agsiGeometryColumnSet.md),# agsiGeometryColumnSet,[agsiGeometryColumnSet](./Standard_Geometry_agsiGeometryColumnSet.md),agsiGeometryColumnSet
# [agsiGeometryColumn](./Standard_Geometry_agsiGeometryColumn.md),# agsiGeometryColumn,[agsiGeometryColumn](./Standard_Geometry_agsiGeometryColumn.md),agsiGeometryColumn
# [agsiGeometryVolFromSurfaces](./Standard_Geometry_agsiGeometryVolFromSurfaces.md),# agsiGeometryVolFromSurfaces,[agsiGeometryVolFromSurfaces](./Standard_Geometry_agsiGeometryVolFromSurfaces.md),agsiGeometryVolFromSurfaces
# [agsiGeometryAreaFromLines](./Standard_Geometry_agsiGeometryAreaFromLines.md),# agsiGeometryAreaFromLines,[agsiGeometryAreaFromLines](./Standard_Geometry_agsiGeometryAreaFromLines.md),agsiGeometryAreaFromLines
# [agsiGeometryLine](./Standard_Geometry_agsiGeometryLine.md),# agsiGeometryLine,[agsiGeometryLine](./Standard_Geometry_agsiGeometryLine.md),agsiGeometryLine
# [agsiData](./Standard_Data_agsiData.md),# agsiData,[agsiData](./Standard_Data_agsiData.md),agsiData
# [agsiDataParameterSet](./Standard_Data_agsiDataParameterSet.md),# agsiDataParameterSet,[agsiDataParameterSet](./Standard_Data_agsiDataParameterSet.md),agsiDataParameterSet
# [agsiDataPropertySet](./Standard_Data_agsiDataPropertySet.md),# agsiDataPropertySet,[agsiDataPropertySet](./Standard_Data_agsiDataPropertySet.md),agsiDataPropertySet
# [agsiDataCase](./Standard_Data_agsiDataCase.md),# agsiDataCase,[agsiDataCase](./Standard_Data_agsiDataCase.md),agsiDataCase
# [agsiDataCode](./Standard_Data_agsiDataCode.md),# agsiDataCode,[agsiDataCode](./Standard_Data_agsiDataCode.md),agsiDataCode
# [agsiDataParameterValue](./Standard_Data_agsiDataParameterValue.md),# agsiDataParameterValue,[agsiDataParameterValue](./Standard_Data_agsiDataParameterValue.md),agsiDataParameterValue
# [agsiDataPropertyValue](./Standard_Data_agsiDataPropertyValue.md),# agsiDataPropertyValue,[agsiDataPropertyValue](./Standard_Data_agsiDataPropertyValue.md),agsiDataPropertyValue
# [agsProject](./Standard_Data_agsProject.md),# agsProject,[agsProject](./Standard_Data_agsProject.md),agsProject
# [agsProjectCoordinateSystem](./Standard_Data_agsProjectCoordinateSystem.md),# agsProjectCoordinateSystem,[agsProjectCoordinateSystem](./Standard_Data_agsProjectCoordinateSystem.md),agsProjectCoordinateSystem
# [agsProjectInvestigation](./Standard_Data_agsProjectInvestigation.md),# agsProjectInvestigation,[agsProjectInvestigation](./Standard_Data_agsProjectInvestigation.md),agsProjectInvestigation
# [agsProjectDocument](./Standard_Data_agsProjectDocument.md),# agsProjectDocument,[agsProjectDocument](./Standard_Data_agsProjectDocument.md),agsProjectDocument
# [root](./Standard_Root_Intro.md),# root,[root](./Standard_Root_Intro.md),root
